^C:\USERS\ACER\SOURCE\REPOS\FINALSESPINAS\FINALSESPINAS\GENTHREEPOKEDEX.CPP|C:\USERS\ACER\SOURCE\REPOS\FINALSESPINAS\FINALSESPINAS\HOENNMAP.CPP|C:\USERS\ACER\SOURCE\REPOS\FINALSESPINAS\FINALSESPINAS\SOURCE.CPP
C:\USERS\ACER\SOURCE\REPOS\FINALSESPINAS\FINALSESPINAS\DEBUG\VC141.PDB
C:\USERS\ACER\SOURCE\REPOS\FINALSESPINAS\FINALSESPINAS\DEBUG\VC141.IDB
C:\USERS\ACER\SOURCE\REPOS\FINALSESPINAS\FINALSESPINAS\DEBUG\SOURCE.OBJ
C:\USERS\ACER\SOURCE\REPOS\FINALSESPINAS\FINALSESPINAS\DEBUG\HOENNMAP.OBJ
C:\USERS\ACER\SOURCE\REPOS\FINALSESPINAS\FINALSESPINAS\DEBUG\GENTHREEPOKEDEX.OBJ
^C:\USERS\ACER\SOURCE\REPOS\FINALSESPINAS\FINALSESPINAS\GENTHREEPOKEDEX.CPP|C:\USERS\ACER\SOURCE\REPOS\FINALSESPINAS\FINALSESPINAS\SOURCE.CPP
C:\USERS\ACER\SOURCE\REPOS\FINALSESPINAS\FINALSESPINAS\DEBUG\VC141.PDB
C:\USERS\ACER\SOURCE\REPOS\FINALSESPINAS\FINALSESPINAS\DEBUG\VC141.IDB
C:\USERS\ACER\SOURCE\REPOS\FINALSESPINAS\FINALSESPINAS\DEBUG\SOURCE.OBJ
^C:\USERS\ACER\SOURCE\REPOS\FINALSESPINAS\FINALSESPINAS\GENTHREEPOKEDEX.CPP|C:\USERS\ACER\SOURCE\REPOS\FINALSESPINAS\FINALSESPINAS\HOENNMAP.CPP|C:\USERS\ACER\SOURCE\REPOS\FINALSESPINAS\FINALSESPINAS\POKEMONID.CPP|C:\USERS\ACER\SOURCE\REPOS\FINALSESPINAS\FINALSESPINAS\SOURCE.CPP
C:\USERS\ACER\SOURCE\REPOS\FINALSESPINAS\FINALSESPINAS\DEBUG\VC141.PDB
C:\USERS\ACER\SOURCE\REPOS\FINALSESPINAS\FINALSESPINAS\DEBUG\VC141.IDB
C:\USERS\ACER\SOURCE\REPOS\FINALSESPINAS\FINALSESPINAS\DEBUG\SOURCE.OBJ
C:\USERS\ACER\SOURCE\REPOS\FINALSESPINAS\FINALSESPINAS\DEBUG\POKEMONID.OBJ
C:\USERS\ACER\SOURCE\REPOS\FINALSESPINAS\FINALSESPINAS\DEBUG\HOENNMAP.OBJ
C:\USERS\ACER\SOURCE\REPOS\FINALSESPINAS\FINALSESPINAS\DEBUG\GENTHREEPOKEDEX.OBJ
^C:\USERS\ACER\SOURCE\REPOS\FINALSESPINAS\FINALSESPINAS\HOENNMAP.CPP|C:\USERS\ACER\SOURCE\REPOS\FINALSESPINAS\FINALSESPINAS\POKEBATTLE.CPP|C:\USERS\ACER\SOURCE\REPOS\FINALSESPINAS\FINALSESPINAS\SOURCE.CPP
C:\USERS\ACER\SOURCE\REPOS\FINALSESPINAS\FINALSESPINAS\DEBUG\VC141.PDB
C:\USERS\ACER\SOURCE\REPOS\FINALSESPINAS\FINALSESPINAS\DEBUG\VC141.IDB
C:\USERS\ACER\SOURCE\REPOS\FINALSESPINAS\FINALSESPINAS\DEBUG\SOURCE.OBJ
C:\USERS\ACER\SOURCE\REPOS\FINALSESPINAS\FINALSESPINAS\DEBUG\POKEBATTLE.OBJ
C:\USERS\ACER\SOURCE\REPOS\FINALSESPINAS\FINALSESPINAS\DEBUG\HOENNMAP.OBJ
^C:\USERS\ACER\SOURCE\REPOS\FINALSESPINAS\FINALSESPINAS\GENTHREEPOKEDEX.CPP|C:\USERS\ACER\SOURCE\REPOS\FINALSESPINAS\FINALSESPINAS\HOENNMAP.CPP|C:\USERS\ACER\SOURCE\REPOS\FINALSESPINAS\FINALSESPINAS\POKEBATTLE.CPP|C:\USERS\ACER\SOURCE\REPOS\FINALSESPINAS\FINALSESPINAS\POKEMONID.CPP|C:\USERS\ACER\SOURCE\REPOS\FINALSESPINAS\FINALSESPINAS\SOURCE.CPP
C:\USERS\ACER\SOURCE\REPOS\FINALSESPINAS\FINALSESPINAS\DEBUG\VC141.PDB
C:\USERS\ACER\SOURCE\REPOS\FINALSESPINAS\FINALSESPINAS\DEBUG\VC141.IDB
C:\USERS\ACER\SOURCE\REPOS\FINALSESPINAS\FINALSESPINAS\DEBUG\SOURCE.OBJ
C:\USERS\ACER\SOURCE\REPOS\FINALSESPINAS\FINALSESPINAS\DEBUG\POKEMONID.OBJ
C:\USERS\ACER\SOURCE\REPOS\FINALSESPINAS\FINALSESPINAS\DEBUG\POKEBATTLE.OBJ
C:\USERS\ACER\SOURCE\REPOS\FINALSESPINAS\FINALSESPINAS\DEBUG\GENTHREEPOKEDEX.OBJ
^C:\USERS\ACER\SOURCE\REPOS\FINALSESPINAS\FINALSESPINAS\GENTHREEPOKEDEX.CPP
C:\USERS\ACER\SOURCE\REPOS\FINALSESPINAS\FINALSESPINAS\DEBUG\GENTHREEPOKEDEX.OBJ
^C:\USERS\ACER\SOURCE\REPOS\FINALSESPINAS\FINALSESPINAS\POKEBATTLE.CPP
C:\USERS\ACER\SOURCE\REPOS\FINALSESPINAS\FINALSESPINAS\DEBUG\POKEBATTLE.OBJ
^C:\USERS\ACER\SOURCE\REPOS\FINALSESPINAS\FINALSESPINAS\POKEMONID.CPP
C:\USERS\ACER\SOURCE\REPOS\FINALSESPINAS\FINALSESPINAS\DEBUG\POKEMONID.OBJ
^C:\USERS\ACER\SOURCE\REPOS\FINALSESPINAS\FINALSESPINAS\HOENNMAP.CPP|C:\USERS\ACER\SOURCE\REPOS\FINALSESPINAS\FINALSESPINAS\SOURCE.CPP
C:\USERS\ACER\SOURCE\REPOS\FINALSESPINAS\FINALSESPINAS\DEBUG\VC141.PDB
C:\USERS\ACER\SOURCE\REPOS\FINALSESPINAS\FINALSESPINAS\DEBUG\VC141.IDB
C:\USERS\ACER\SOURCE\REPOS\FINALSESPINAS\FINALSESPINAS\DEBUG\SOURCE.OBJ
C:\USERS\ACER\SOURCE\REPOS\FINALSESPINAS\FINALSESPINAS\DEBUG\HOENNMAP.OBJ
^C:\USERS\ACER\SOURCE\REPOS\FINALSESPINAS\FINALSESPINAS\HOENNMAP.CPP
C:\USERS\ACER\SOURCE\REPOS\FINALSESPINAS\FINALSESPINAS\DEBUG\VC141.PDB
^C:\USERS\ACER\SOURCE\REPOS\FINALSESPINAS\FINALSESPINAS\SOURCE.CPP
C:\USERS\ACER\SOURCE\REPOS\FINALSESPINAS\FINALSESPINAS\DEBUG\VC141.PDB
C:\USERS\ACER\SOURCE\REPOS\FINALSESPINAS\FINALSESPINAS\DEBUG\VC141.IDB
C:\USERS\ACER\SOURCE\REPOS\FINALSESPINAS\FINALSESPINAS\DEBUG\SOURCE.OBJ
